52/daten/alpha_kurz.csv

Record Length,1.024000e+03,,          0.00000,  32.61030,
Sample Interval,1.220703e+04,,      12207.03125,  29.81030,
Trigger Point,0.000000000000e+00,,      24414.06250, -26.98970,
,,,      36621.09375, -26.98970,
,,,      48828.12500, -26.98970,
,,,      61035.15625, -26.98970,
Source,MATH,,      73242.18750, -26.98970,
Vertical Units,dB,,      85449.21875, -26.98970,
Vertical Scale,1.000000e+01,,      97656.25000, -26.98970,
Vertical Offset,0.000000e+00,,     109863.28125, -26.98970,
Horizontal Units,Hz,,     122070.31250, -26.98970,
Horizontal Scale,1.250000e+06,,     134277.34375, -26.98970,
Pt Fmt,Y,,     146484.37500, -26.98970,
Yzero,1.301030e+01,,     158691.40625, -26.98970,
Probe Atten,1.000000e+00,,     170898.43750, -26.98970,
Model Number,TDS1001B,,     183105.46875, -26.98970,
Serial Number,C051164,,     195312.50000, -26.98970,
Firmware Version,FV:v22.01,,     207519.53125, -26.98970,
,,,219726.56250, -26.98970,
,,,231933.59375, -26.98970,
,,,244140.62500, -25.78970,
,,,256347.65625, -22.98970,
,,,268554.68750, -26.98970,
,,,280761.71875, -26.98970,
,,,292968.75000, -26.98970,
,,,305175.78125, -26.98970,
,,,317382.81250, -26.98970,
,,,329589.84375, -26.98970,
,,,341796.87500, -26.98970,
,,,354003.90625, -26.98970,
,,,366210.93750, -26.98970,
,,,378417.96875, -26.98970,
,,,390625.00000, -26.98970,
,,,402832.03125, -26.98970,
,,,415039.06250, -26.98970,
,,,427246.09375, -26.98970,
,,,439453.12500, -26.98970,
,,,451660.15625, -26.98970,
,,,463867.18750, -26.98970,
,,,476074.21875, -26.98970,
,,,488281.25000, -26.98970,
,,,500488.28125, -25.78970,
,,,512695.31250, -26.98970,
,,,524902.34375, -26.98970,
,,,537109.37500, -26.98970,
,,,549316.40625, -26.98970,
,,,561523.43750, -26.98970,
,,,573730.46875, -26.98970,
,,,585937.50000, -26.98970,
,,,598144.53125, -21.78970,
,,,610351.56250, -26.98970,
,,,622558.59375, -26.98970,
,,,634765.62500, -26.98970,
,,,646972.65625, -26.98970,
,,,659179.68750, -26.98970,
,,,671386.71875, -26.98970,
,,,683593.75000, -26.98970,
,,,695800.78125, -26.98970,
,,,708007.81250, -26.98970,
,,,720214.84375, -26.98970,
,,,732421.87500, -26.98970,
,,,744628.90625, -26.98970,
,,,756835.93750, -26.98970,
,,,769042.96875, -25.78970,
,,,781250.00000, -21.78970,
,,,793457.03125, -13.38970,
,,,805664.06250,  -7.78970,
,,,817871.09375,   1.01030,
,,,830078.12500,  15.41030,
,,,842285.15625,  34.21030,
,,,854492.18750,  36.61030,
,,,866699.21875,  26.21030,
,,,878906.25000,   5.41030,
,,,891113.28125,  -4.98970,
,,,903320.31250, -11.78970,
,,,915527.34375, -17.38970,
,,,927734.37500, -25.78970,
,,,939941.40625, -21.78970,
,,,952148.43750, -26.98970,
,,,964355.46875, -25.78970,
,,,976562.50000, -26.98970,
,,,988769.53125, -26.98970,
,,,1000976.56250, -26.98970,
,,,1013183.59375, -26.98970,
,,,1025390.62500, -26.98970,
,,,1037597.65625, -26.98970,
,,,1049804.68750, -26.98970,
,,,1062011.71875, -26.98970,
,,,1074218.75000, -26.98970,
,,,1086425.78125, -26.98970,
,,,1098632.81250, -22.98970,
,,,1110839.84375, -22.98970,
,,,1123046.87500, -26.98970,
,,,1135253.90625, -26.98970,
,,,1147460.93750, -26.98970,
,,,1159667.96875, -26.98970,
,,,1171875.00000, -26.98970,
,,,1184082.03125, -26.98970,
,,,1196289.06250, -26.98970,
,,,1208496.09375, -26.98970,
,,,1220703.12500, -26.98970,
,,,1232910.15625, -26.98970,
,,,1245117.18750, -26.98970,
,,,1257324.21875, -26.98970,
,,,1269531.25000, -26.98970,
,,,1281738.28125, -26.98970,
,,,1293945.31250, -26.98970,
,,,1306152.34375, -26.98970,
,,,1318359.37500, -26.98970,
,,,1330566.40625, -26.98970,
,,,1342773.43750, -26.98970,
,,,1354980.46875, -26.98970,
,,,1367187.50000, -26.98970,
,,,1379394.53125, -26.98970,
,,,1391601.56250, -26.98970,
,,,1403808.59375, -26.98970,
,,,1416015.62500, -26.98970,
,,,1428222.65625, -26.98970,
,,,1440429.68750, -26.98970,
,,,1452636.71875, -26.98970,
,,,1464843.75000, -26.98970,
,,,1477050.78125, -26.98970,
,,,1489257.81250, -26.98970,
,,,1501464.84375, -26.98970,
,,,1513671.87500, -26.98970,
,,,1525878.90625, -26.98970,
,,,1538085.93750, -26.98970,
,,,1550292.96875, -26.98970,
,,,1562500.00000, -26.98970,
,,,1574707.03125, -26.98970,
,,,1586914.06250, -26.98970,
,,,1599121.09375, -26.98970,
,,,1611328.12500, -26.98970,
,,,1623535.15625, -26.98970,
,,,1635742.18750, -26.98970,
,,,1647949.21875, -26.98970,
,,,1660156.25000, -26.98970,
,,,1672363.28125, -26.98970,
,,,1684570.31250, -11.38970,
,,,1696777.34375,  -0.18970,
,,,1708984.37500,  -0.98970,
,,,1721191.40625, -15.78970,
,,,1733398.43750, -26.98970,
,,,1745605.46875, -26.98970,
,,,1757812.50000, -26.98970,
,,,1770019.53125, -26.98970,
,,,1782226.56250, -26.98970,
,,,1794433.59375, -26.98970,
,,,1806640.62500, -26.98970,
,,,1818847.65625, -26.98970,
,,,1831054.68750, -26.98970,
,,,1843261.71875, -26.98970,
,,,1855468.75000, -26.98970,
,,,1867675.78125, -26.98970,
,,,1879882.81250, -26.98970,
,,,1892089.84375, -26.98970,
,,,1904296.87500, -26.98970,
,,,1916503.90625, -26.98970,
,,,1928710.93750, -26.98970,
,,,1940917.96875, -26.98970,
,,,1953125.00000, -26.98970,
,,,1965332.03125, -26.98970,
,,,1977539.06250, -26.98970,
,,,1989746.09375, -26.98970,
,,,2001953.12500, -26.98970,
,,,2014160.15625, -26.98970,
,,,2026367.18750, -26.98970,
,,,2038574.21875, -26.98970,
,,,2050781.25000, -26.98970,
,,,2062988.28125, -26.98970,
,,,2075195.31250, -26.98970,
,,,2087402.34375, -26.98970,
,,,2099609.37500, -26.98970,
,,,2111816.40625, -26.98970,
,,,2124023.43750, -26.98970,
,,,2136230.46875, -26.98970,
,,,2148437.50000, -26.98970,
,,,2160644.53125, -26.98970,
,,,2172851.56250, -26.98970,
,,,2185058.59375, -26.98970,
,,,2197265.62500, -26.98970,
,,,2209472.65625, -26.98970,
,,,2221679.68750, -26.98970,
,,,2233886.71875, -26.98970,
,,,2246093.75000, -26.98970,
,,,2258300.78125, -26.98970,
,,,2270507.81250, -26.98970,
,,,2282714.84375, -26.98970,
,,,2294921.87500, -26.98970,
,,,2307128.90625, -26.98970,
,,,2319335.93750, -26.98970,
,,,2331542.96875, -26.98970,
,,,2343750.00000, -26.98970,
,,,2355957.03125, -26.98970,
,,,2368164.06250, -26.98970,
,,,2380371.09375, -26.98970,
,,,2392578.12500, -26.98970,
,,,2404785.15625, -26.98970,
,,,2416992.18750, -26.98970,
,,,2429199.21875, -26.98970,
,,,2441406.25000, -26.98970,
,,,2453613.28125, -26.98970,
,,,2465820.31250, -26.98970,
,,,2478027.34375, -26.98970,
,,,2490234.37500, -26.98970,
,,,2502441.40625, -26.98970,
,,,2514648.43750, -20.58970,
,,,2526855.46875, -10.58970,
,,,2539062.50000,  19.81030,
,,,2551269.53125,  27.01030,
,,,2563476.56250,  22.21030,
,,,2575683.59375,  -7.78970,
,,,2587890.62500, -21.78970,
,,,2600097.65625, -26.98970,
,,,2612304.68750, -26.98970,
,,,2624511.71875, -26.98970,
,,,2636718.75000, -26.98970,
,,,2648925.78125, -26.98970,
,,,2661132.81250, -26.98970,
,,,2673339.84375, -26.98970,
,,,2685546.87500, -26.98970,
,,,2697753.90625, -26.98970,
,,,2709960.93750, -26.98970,
,,,2722167.96875, -26.98970,
,,,2734375.00000, -26.98970,
,,,2746582.03125, -26.98970,
,,,2758789.06250, -26.98970,
,,,2770996.09375, -26.98970,
,,,2783203.12500, -26.98970,
,,,2795410.15625, -26.98970,
,,,2807617.18750, -26.98970,
,,,2819824.21875, -26.98970,
,,,2832031.25000, -26.98970,
,,,2844238.28125, -26.98970,
,,,2856445.31250, -26.98970,
,,,2868652.34375, -23.38970,
,,,2880859.37500, -22.98970,
,,,2893066.40625, -26.98970,
,,,2905273.43750, -26.98970,
,,,2917480.46875, -26.98970,
,,,2929687.50000, -25.78970,
,,,2941894.53125, -26.98970,
,,,2954101.56250, -26.98970,
,,,2966308.59375, -26.98970,
,,,2978515.62500, -26.98970,
,,,2990722.65625, -26.98970,
,,,3002929.68750, -26.98970,
,,,3015136.71875, -26.98970,
,,,3027343.75000, -26.98970,
,,,3039550.78125, -26.98970,
,,,3051757.81250, -26.98970,
,,,3063964.84375, -26.98970,
,,,3076171.87500, -26.98970,
,,,3088378.90625, -26.98970,
,,,3100585.93750, -26.98970,
,,,3112792.96875, -26.98970,
,,,3125000.00000, -26.98970,
,,,3137207.03125, -26.98970,
,,,3149414.06250, -26.98970,
,,,3161621.09375, -26.98970,
,,,3173828.12500, -26.98970,
,,,3186035.15625, -26.98970,
,,,3198242.18750, -26.98970,
,,,3210449.21875, -26.98970,
,,,3222656.25000, -26.98970,
,,,3234863.28125, -26.98970,
,,,3247070.31250, -26.98970,
,,,3259277.34375, -26.98970,
,,,3271484.37500, -26.98970,
,,,3283691.40625, -26.98970,
,,,3295898.43750, -26.98970,
,,,3308105.46875, -26.98970,
,,,3320312.50000, -26.98970,
,,,3332519.53125, -26.98970,
,,,3344726.56250, -26.98970,
,,,3356933.59375, -26.98970,
,,,3369140.62500, -26.98970,
,,,3381347.65625, -20.58970,
,,,3393554.68750,  -2.18970,
,,,3405761.71875,   1.01030,
,,,3417968.75000,  -8.18970,
,,,3430175.78125, -26.98970,
,,,3442382.81250, -26.98970,
,,,3454589.84375, -25.78970,
,,,3466796.87500, -26.98970,
,,,3479003.90625, -26.98970,
,,,3491210.93750, -26.98970,
,,,3503417.96875, -26.98970,
,,,3515625.00000, -26.98970,
,,,3527832.03125, -26.98970,
,,,3540039.06250, -26.98970,
,,,3552246.09375, -26.98970,
,,,3564453.12500, -26.98970,
,,,3576660.15625, -26.98970,
,,,3588867.18750, -26.98970,
,,,3601074.21875, -26.98970,
,,,3613281.25000, -26.98970,
,,,3625488.28125, -26.98970,
,,,3637695.31250, -26.98970,
,,,3649902.34375, -26.98970,
,,,3662109.37500, -26.98970,
,,,3674316.40625, -26.98970,
,,,3686523.43750, -26.98970,
,,,3698730.46875, -26.98970,
,,,3710937.50000, -26.98970,
,,,3723144.53125, -26.98970,
,,,3735351.56250, -26.98970,
,,,3747558.59375, -26.98970,
,,,3759765.62500, -26.98970,
,,,3771972.65625, -26.98970,
,,,3784179.68750, -26.98970,
,,,3796386.71875, -26.98970,
,,,3808593.75000, -26.98970,
,,,3820800.78125, -26.98970,
,,,3833007.81250, -26.98970,
,,,3845214.84375, -26.98970,
,,,3857421.87500, -26.98970,
,,,3869628.90625, -26.98970,
,,,3881835.93750, -26.98970,
,,,3894042.96875, -26.98970,
,,,3906250.00000, -26.98970,
,,,3918457.03125, -26.98970,
,,,3930664.06250, -26.98970,
,,,3942871.09375, -26.98970,
,,,3955078.12500, -26.98970,
,,,3967285.15625, -26.98970,
,,,3979492.18750, -26.98970,
,,,3991699.21875, -26.98970,
,,,4003906.25000, -26.98970,
,,,4016113.28125, -26.98970,
,,,4028320.31250, -26.98970,
,,,4040527.34375, -26.98970,
,,,4052734.37500, -26.98970,
,,,4064941.40625, -26.98970,
,,,4077148.43750, -26.98970,
,,,4089355.46875, -26.98970,
,,,4101562.50000, -26.98970,
,,,4113769.53125, -26.98970,
,,,4125976.56250, -26.98970,
,,,4138183.59375, -26.98970,
,,,4150390.62500, -26.98970,
,,,4162597.65625, -26.98970,
,,,4174804.68750, -26.98970,
,,,4187011.71875, -26.98970,
,,,4199218.75000, -22.98970,
,,,4211425.78125, -19.78970,
,,,4223632.81250, -10.18970,
,,,4235839.84375,   6.21030,
,,,4248046.87500,  20.21030,
,,,4260253.90625,  20.21030,
,,,4272460.93750,   5.81030,
,,,4284667.96875, -10.58970,
,,,4296875.00000, -22.98970,
,,,4309082.03125, -22.98970,
,,,4321289.06250, -26.98970,
,,,4333496.09375, -26.98970,
,,,4345703.12500, -26.98970,
,,,4357910.15625, -26.98970,
,,,4370117.18750, -26.98970,
,,,4382324.21875, -25.78970,
,,,4394531.25000, -26.98970,
,,,4406738.28125, -26.98970,
,,,4418945.31250, -26.98970,
,,,4431152.34375, -26.98970,
,,,4443359.37500, -26.98970,
,,,4455566.40625, -26.98970,
,,,4467773.43750, -26.98970,
,,,4479980.46875, -26.98970,
,,,4492187.50000, -26.98970,
,,,4504394.53125, -26.98970,
,,,4516601.56250, -26.98970,
,,,4528808.59375, -26.98970,
,,,4541015.62500, -26.98970,
,,,4553222.65625, -26.98970,
,,,4565429.68750, -26.98970,
,,,4577636.71875, -20.98970,
,,,4589843.75000, -23.38970,
,,,4602050.78125, -26.98970,
,,,4614257.81250, -26.98970,
,,,4626464.84375, -26.98970,
,,,4638671.87500, -26.98970,
,,,4650878.90625, -26.98970,
,,,4663085.93750, -26.98970,
,,,4675292.96875, -26.98970,
,,,4687500.00000, -26.98970,
,,,4699707.03125, -26.98970,
,,,4711914.06250, -26.98970,
,,,4724121.09375, -26.98970,
,,,4736328.12500, -26.98970,
,,,4748535.15625, -26.98970,
,,,4760742.18750, -26.98970,
,,,4772949.21875, -26.98970,
,,,4785156.25000, -26.98970,
,,,4797363.28125, -26.98970,
,,,4809570.31250, -26.98970,
,,,4821777.34375, -26.98970,
,,,4833984.37500, -26.98970,
,,,4846191.40625, -26.98970,
,,,4858398.43750, -26.98970,
,,,4870605.46875, -26.98970,
,,,4882812.50000, -26.98970,
,,,4895019.53125, -26.98970,
,,,4907226.56250, -26.98970,
,,,4919433.59375, -25.78970,
,,,4931640.62500, -26.98970,
,,,4943847.65625, -26.98970,
,,,4956054.68750, -26.98970,
,,,4968261.71875, -26.98970,
,,,4980468.75000, -26.98970,
,,,4992675.78125, -26.98970,
,,,5004882.81250, -26.98970,
,,,5017089.84375, -26.98970,
,,,5029296.87500, -26.98970,
,,,5041503.90625, -26.98970,
,,,5053710.93750, -26.98970,
,,,5065917.96875, -26.98970,
,,,5078125.00000, -26.98970,
,,,5090332.03125,  -8.18970,
,,,5102539.06250,  -0.18970,
,,,5114746.09375,  -3.78970,
,,,5126953.12500, -26.98970,
,,,5139160.15625, -26.98970,
,,,5151367.18750, -26.98970,
,,,5163574.21875, -26.98970,
,,,5175781.25000, -26.98970,
,,,5187988.28125, -26.98970,
,,,5200195.31250, -26.98970,
,,,5212402.34375, -26.98970,
,,,5224609.37500, -26.98970,
,,,5236816.40625, -26.98970,
,,,5249023.43750, -26.98970,
,,,5261230.46875, -26.98970,
,,,5273437.50000, -26.98970,
,,,5285644.53125, -26.98970,
,,,5297851.56250, -26.98970,
,,,5310058.59375, -26.98970,
,,,5322265.62500, -26.98970,
,,,5334472.65625, -26.98970,
,,,5346679.68750, -26.98970,
,,,5358886.71875, -26.98970,
,,,5371093.75000, -26.98970,
,,,5383300.78125, -26.98970,
,,,5395507.81250, -26.98970,
,,,5407714.84375, -26.98970,
,,,5419921.87500, -23.78970,
,,,5432128.90625, -19.78970,
,,,5444335.93750, -26.98970,
,,,5456542.96875, -26.98970,
,,,5468750.00000, -26.98970,
,,,5480957.03125, -26.98970,
,,,5493164.06250, -26.98970,
,,,5505371.09375, -26.98970,
,,,5517578.12500, -26.98970,
,,,5529785.15625, -26.98970,
,,,5541992.18750, -26.98970,
,,,5554199.21875, -26.98970,
,,,5566406.25000, -26.98970,
,,,5578613.28125, -26.98970,
,,,5590820.31250, -26.98970,
,,,5603027.34375, -26.98970,
,,,5615234.37500, -26.98970,
,,,5627441.40625, -26.98970,
,,,5639648.43750, -26.98970,
,,,5651855.46875, -26.98970,
,,,5664062.50000, -26.98970,
,,,5676269.53125, -26.98970,
,,,5688476.56250, -26.98970,
,,,5700683.59375, -26.98970,
,,,5712890.62500, -26.98970,
,,,5725097.65625, -26.98970,
,,,5737304.68750, -26.98970,
,,,5749511.71875, -26.98970,
,,,5761718.75000, -26.98970,
,,,5773925.78125, -26.98970,
,,,5786132.81250, -26.98970,
,,,5798339.84375, -26.98970,
,,,5810546.87500, -26.98970,
,,,5822753.90625, -26.98970,
,,,5834960.93750, -26.98970,
,,,5847167.96875, -26.98970,
,,,5859375.00000, -26.98970,
,,,5871582.03125, -26.98970,
,,,5883789.06250, -26.98970,
,,,5895996.09375, -26.98970,
,,,5908203.12500, -26.98970,
,,,5920410.15625, -25.78970,
,,,5932617.18750, -15.78970,
,,,5944824.21875,  12.61030,
,,,5957031.25000,  17.01030,
,,,5969238.28125,   9.41030,
,,,5981445.31250, -17.78970,
,,,5993652.34375, -26.98970,
,,,6005859.37500, -26.98970,
,,,6018066.40625, -26.98970,
,,,6030273.43750, -26.98970,
,,,6042480.46875, -26.98970,
,,,6054687.50000, -26.98970,
,,,6066894.53125, -26.98970,
,,,6079101.56250, -26.98970,
,,,6091308.59375, -26.98970,
,,,6103515.62500, -26.98970,
,,,6115722.65625, -26.98970,
,,,6127929.68750, -26.98970,
,,,6140136.71875, -26.98970,
,,,6152343.75000, -26.98970,
,,,6164550.78125, -26.98970,
,,,6176757.81250, -26.98970,
,,,6188964.84375, -26.98970,
,,,6201171.87500, -26.98970,
,,,6213378.90625, -26.98970,
,,,6225585.93750, -26.98970,
,,,6237792.96875, -25.78970,
,,,6250000.00000, -26.98970,
,,,6262207.03125, -26.98970,
,,,6274414.06250, -26.98970,
,,,6286621.09375, -26.98970,
,,,6298828.12500, -26.98970,
,,,6311035.15625, -26.98970,
,,,6323242.18750, -26.98970,
,,,6335449.21875, -26.98970,
,,,6347656.25000, -26.98970,
,,,6359863.28125, -26.98970,
,,,6372070.31250, -26.98970,
,,,6384277.34375, -26.98970,
,,,6396484.37500, -26.98970,
,,,6408691.40625, -26.98970,
,,,6420898.43750, -26.98970,
,,,6433105.46875, -26.98970,
,,,6445312.50000, -26.98970,
,,,6457519.53125, -26.98970,
,,,6469726.56250, -26.98970,
,,,6481933.59375, -26.98970,
,,,6494140.62500, -26.98970,
,,,6506347.65625, -26.98970,
,,,6518554.68750, -26.98970,
,,,6530761.71875, -26.98970,
,,,6542968.75000, -26.98970,
,,,6555175.78125, -26.98970,
,,,6567382.81250, -26.98970,
,,,6579589.84375, -26.98970,
,,,6591796.87500, -26.98970,
,,,6604003.90625, -26.98970,
,,,6616210.93750, -26.98970,
,,,6628417.96875, -26.98970,
,,,6640625.00000, -26.98970,
,,,6652832.03125, -26.98970,
,,,6665039.06250, -26.98970,
,,,6677246.09375, -26.98970,
,,,6689453.12500, -26.98970,
,,,6701660.15625, -26.98970,
,,,6713867.18750, -26.98970,
,,,6726074.21875, -26.98970,
,,,6738281.25000, -26.98970,
,,,6750488.28125, -26.98970,
,,,6762695.31250, -26.98970,
,,,6774902.34375, -26.98970,
,,,6787109.37500, -16.98970,
,,,6799316.40625,  -3.38970,
,,,6811523.43750,  -2.18970,
,,,6823730.46875, -14.18970,
,,,6835937.50000, -26.98970,
,,,6848144.53125, -26.98970,
,,,6860351.56250, -26.98970,
,,,6872558.59375, -26.98970,
,,,6884765.62500, -26.98970,
,,,6896972.65625, -26.98970,
,,,6909179.68750, -26.98970,
,,,6921386.71875, -26.98970,
,,,6933593.75000, -26.98970,
,,,6945800.78125, -26.98970,
,,,6958007.81250, -26.98970,
,,,6970214.84375, -26.98970,
,,,6982421.87500, -26.98970,
,,,6994628.90625, -26.98970,
,,,7006835.93750, -26.98970,
,,,7019042.96875, -26.98970,
,,,7031250.00000, -26.98970,
,,,7043457.03125, -26.98970,
,,,7055664.06250, -26.98970,
,,,7067871.09375, -26.98970,
,,,7080078.12500, -26.98970,
,,,7092285.15625, -26.98970,
,,,7104492.18750, -26.98970,
,,,7116699.21875, -25.78970,
,,,7128906.25000, -18.98970,
,,,7141113.28125, -20.58970,
,,,7153320.31250, -26.98970,
,,,7165527.34375, -26.98970,
,,,7177734.37500, -26.98970,
,,,7189941.40625, -26.98970,
,,,7202148.43750, -26.98970,
,,,7214355.46875, -26.98970,
,,,7226562.50000, -26.98970,
,,,7238769.53125, -26.98970,
,,,7250976.56250, -26.98970,
,,,7263183.59375, -26.98970,
,,,7275390.62500, -26.98970,
,,,7287597.65625, -26.98970,
,,,7299804.68750, -26.98970,
,,,7312011.71875, -26.98970,
,,,7324218.75000, -26.98970,
,,,7336425.78125, -26.98970,
,,,7348632.81250, -26.98970,
,,,7360839.84375, -26.98970,
,,,7373046.87500, -23.78970,
,,,7385253.90625, -26.98970,
,,,7397460.93750, -26.98970,
,,,7409667.96875, -26.98970,
,,,7421875.00000, -26.98970,
,,,7434082.03125, -26.98970,
,,,7446289.06250, -26.98970,
,,,7458496.09375, -26.98970,
,,,7470703.12500, -26.98970,
,,,7482910.15625, -26.98970,
,,,7495117.18750, -26.98970,
,,,7507324.21875, -26.98970,
,,,7519531.25000, -26.98970,
,,,7531738.28125, -26.98970,
,,,7543945.31250, -26.98970,
,,,7556152.34375, -26.98970,
,,,7568359.37500, -26.98970,
,,,7580566.40625, -26.98970,
,,,7592773.43750, -26.98970,
,,,7604980.46875, -25.78970,
,,,7617187.50000, -26.98970,
,,,7629394.53125, -18.98970,
,,,7641601.56250,   1.81030,
,,,7653808.59375,  12.21030,
,,,7666015.62500,   9.41030,
,,,7678222.65625, -10.18970,
,,,7690429.68750, -26.98970,
,,,7702636.71875, -26.98970,
,,,7714843.75000, -26.98970,
,,,7727050.78125, -26.98970,
,,,7739257.81250, -26.98970,
,,,7751464.84375, -26.98970,
,,,7763671.87500, -26.98970,
,,,7775878.90625, -26.98970,
,,,7788085.93750, -26.98970,
,,,7800292.96875, -26.98970,
,,,7812500.00000, -26.98970,
,,,7824707.03125, -26.98970,
,,,7836914.06250, -26.98970,
,,,7849121.09375, -26.98970,
,,,7861328.12500, -26.98970,
,,,7873535.15625, -26.98970,
,,,7885742.18750, -26.98970,
,,,7897949.21875, -26.98970,
,,,7910156.25000, -26.98970,
,,,7922363.28125, -26.98970,
,,,7934570.31250, -26.98970,
,,,7946777.34375, -26.98970,
,,,7958984.37500, -26.98970,
,,,7971191.40625, -26.98970,
,,,7983398.43750, -25.78970,
,,,7995605.46875, -26.98970,
,,,8007812.50000, -26.98970,
,,,8020019.53125, -26.98970,
,,,8032226.56250, -26.98970,
,,,8044433.59375, -26.98970,
,,,8056640.62500, -26.98970,
,,,8068847.65625, -26.98970,
,,,8081054.68750, -26.98970,
,,,8093261.71875, -26.98970,
,,,8105468.75000, -26.98970,
,,,8117675.78125, -26.98970,
,,,8129882.81250, -26.98970,
,,,8142089.84375, -26.98970,
,,,8154296.87500, -26.98970,
,,,8166503.90625, -26.98970,
,,,8178710.93750, -26.98970,
,,,8190917.96875, -26.98970,
,,,8203125.00000, -26.98970,
,,,8215332.03125, -25.78970,
,,,8227539.06250, -26.98970,
,,,8239746.09375, -26.98970,
,,,8251953.12500, -26.98970,
,,,8264160.15625, -26.98970,
