52/daten/mittleres_75ohm/kurzgeschlossen.csv

Record Length,2.500000e+03,,  -0.000000208000,-126.00000,
Sample Interval,2.000000e-10,,  -0.000000207800,-126.00000,
Trigger Point,1.040000000000e+03,,  -0.000000207600,-126.00000,
,,,  -0.000000207400,-126.00000,
,,,  -0.000000207200,-126.00000,
,,,  -0.000000207000,-126.00000,
Source,CH1,,  -0.000000206800,-126.00000,
Vertical Units,V,,  -0.000000206600,-126.00000,
Vertical Scale,5.000000e+01,,  -0.000000206400,-126.00000,
Vertical Offset,7.200000e+01,,  -0.000000206200,-126.00000,
Horizontal Units,s,,  -0.000000206000,-126.00000,
Horizontal Scale,5.000000e-08,,  -0.000000205800,-126.00000,
Pt Fmt,Y,,  -0.000000205600,-126.00000,
Yzero,0.000000e+00,,  -0.000000205400,-126.00000,
Probe Atten,1.000000e+01,,  -0.000000205200,-126.00000,
Model Number,TDS1001B,,  -0.000000205000,-126.00000,
Serial Number,C051164,,  -0.000000204800,-126.00000,
Firmware Version,FV:v22.01,,  -0.000000204600,-126.00000,
,,,-00.000000204400,-126.00000,
,,,-00.000000204200,-126.00000,
,,,-00.000000204000,-126.00000,
,,,-00.000000203800,-126.00000,
,,,-00.000000203600,-124.00000,
,,,-00.000000203400,-126.00000,
,,,-00.000000203200,-126.00000,
,,,-00.000000203000,-126.00000,
,,,-00.000000202800,-126.00000,
,,,-00.000000202600,-126.00000,
,,,-00.000000202400,-126.00000,
,,,-00.000000202200,-124.00000,
,,,-00.000000202000,-126.00000,
,,,-00.000000201800,-126.00000,
,,,-00.000000201600,-126.00000,
,,,-00.000000201400,-126.00000,
,,,-00.000000201200,-126.00000,
,,,-00.000000201000,-126.00000,
,,,-00.000000200800,-126.00000,
,,,-00.000000200600,-126.00000,
,,,-00.000000200400,-126.00000,
,,,-00.000000200200,-126.00000,
,,,-00.000000200000,-126.00000,
,,,-00.000000199800,-126.00000,
,,,-00.000000199600,-126.00000,
,,,-00.000000199400,-126.00000,
,,,-00.000000199200,-126.00000,
,,,-00.000000199000,-126.00000,
,,,-00.000000198800,-126.00000,
,,,-00.000000198600,-126.00000,
,,,-00.000000198400,-126.00000,
,,,-00.000000198200,-126.00000,
,,,-00.000000198000,-126.00000,
,,,-00.000000197800,-126.00000,
,,,-00.000000197600,-126.00000,
,,,-00.000000197400,-126.00000,
,,,-00.000000197200,-126.00000,
,,,-00.000000197000,-126.00000,
,,,-00.000000196800,-126.00000,
,,,-00.000000196600,-126.00000,
,,,-00.000000196400,-126.00000,
,,,-00.000000196200,-126.00000,
,,,-00.000000196000,-126.00000,
,,,-00.000000195800,-126.00000,
,,,-00.000000195600,-124.00000,
,,,-00.000000195400,-124.00000,
,,,-00.000000195200,-124.00000,
,,,-00.000000195000,-126.00000,
,,,-00.000000194800,-126.00000,
,,,-00.000000194600,-124.00000,
,,,-00.000000194400,-124.00000,
,,,-00.000000194200,-124.00000,
,,,-00.000000194000,-124.00000,
,,,-00.000000193800,-124.00000,
,,,-00.000000193600,-124.00000,
,,,-00.000000193400,-124.00000,
,,,-00.000000193200,-124.00000,
,,,-00.000000193000,-126.00000,
,,,-00.000000192800,-126.00000,
,,,-00.000000192600,-126.00000,
,,,-00.000000192400,-126.00000,
,,,-00.000000192200,-126.00000,
,,,-00.000000192000,-124.00000,
,,,-00.000000191800,-124.00000,
,,,-00.000000191600,-124.00000,
,,,-00.000000191400,-124.00000,
,,,-00.000000191200,-124.00000,
,,,-00.000000191000,-126.00000,
,,,-00.000000190800,-126.00000,
,,,-00.000000190600,-126.00000,
,,,-00.000000190400,-126.00000,
,,,-00.000000190200,-126.00000,
,,,-00.000000190000,-126.00000,
,,,-00.000000189800,-126.00000,
,,,-00.000000189600,-126.00000,
,,,-00.000000189400,-126.00000,
,,,-00.000000189200,-126.00000,
,,,-00.000000189000,-126.00000,
,,,-00.000000188800,-126.00000,
,,,-00.000000188600,-126.00000,
,,,-00.000000188400,-126.00000,
,,,-00.000000188200,-126.00000,
,,,-00.000000188000,-126.00000,
,,,-00.000000187800,-126.00000,
,,,-00.000000187600,-126.00000,
,,,-00.000000187400,-126.00000,
,,,-00.000000187200,-126.00000,
,,,-00.000000187000,-126.00000,
,,,-00.000000186800,-126.00000,
,,,-00.000000186600,-124.00000,
,,,-00.000000186400,-126.00000,
,,,-00.000000186200,-124.00000,
,,,-00.000000186000,-124.00000,
,,,-00.000000185800,-124.00000,
,,,-00.000000185600,-124.00000,
,,,-00.000000185400,-124.00000,
,,,-00.000000185200,-124.00000,
,,,-00.000000185000,-124.00000,
,,,-00.000000184800,-126.00000,
,,,-00.000000184600,-124.00000,
,,,-00.000000184400,-124.00000,
,,,-00.000000184200,-124.00000,
,,,-00.000000184000,-124.00000,
,,,-00.000000183800,-126.00000,
,,,-00.000000183600,-124.00000,
,,,-00.000000183400,-126.00000,
,,,-00.000000183200,-126.00000,
,,,-00.000000183000,-126.00000,
,,,-00.000000182800,-126.00000,
,,,-00.000000182600,-126.00000,
,,,-00.000000182400,-126.00000,
,,,-00.000000182200,-126.00000,
,,,-00.000000182000,-126.00000,
,,,-00.000000181800,-126.00000,
,,,-00.000000181600,-126.00000,
,,,-00.000000181400,-126.00000,
,,,-00.000000181200,-126.00000,
,,,-00.000000181000,-126.00000,
,,,-00.000000180800,-126.00000,
,,,-00.000000180600,-124.00000,
,,,-00.000000180400,-124.00000,
,,,-00.000000180200,-124.00000,
,,,-00.000000180000,-124.00000,
,,,-00.000000179800,-124.00000,
,,,-00.000000179600,-124.00000,
,,,-00.000000179400,-124.00000,
,,,-00.000000179200,-126.00000,
,,,-00.000000179000,-126.00000,
,,,-00.000000178800,-126.00000,
,,,-00.000000178600,-126.00000,
,,,-00.000000178400,-126.00000,
,,,-00.000000178200,-126.00000,
,,,-00.000000178000,-126.00000,
,,,-00.000000177800,-126.00000,
,,,-00.000000177600,-124.00000,
,,,-00.000000177400,-124.00000,
,,,-00.000000177200,-124.00000,
,,,-00.000000177000,-124.00000,
,,,-00.000000176800,-124.00000,
,,,-00.000000176600,-124.00000,
,,,-00.000000176400,-124.00000,
,,,-00.000000176200,-124.00000,
,,,-00.000000176000,-124.00000,
,,,-00.000000175800,-124.00000,
,,,-00.000000175600,-124.00000,
,,,-00.000000175400,-124.00000,
,,,-00.000000175200,-124.00000,
,,,-00.000000175000,-126.00000,
,,,-00.000000174800,-126.00000,
,,,-00.000000174600,-126.00000,
,,,-00.000000174400,-126.00000,
,,,-00.000000174200,-126.00000,
,,,-00.000000174000,-126.00000,
,,,-00.000000173800,-126.00000,
,,,-00.000000173600,-126.00000,
,,,-00.000000173400,-126.00000,
,,,-00.000000173200,-126.00000,
,,,-00.000000173000,-126.00000,
,,,-00.000000172800,-126.00000,
,,,-00.000000172600,-124.00000,
,,,-00.000000172400,-124.00000,
,,,-00.000000172200,-124.00000,
,,,-00.000000172000,-126.00000,
,,,-00.000000171800,-126.00000,
,,,-00.000000171600,-126.00000,
,,,-00.000000171400,-126.00000,
,,,-00.000000171200,-126.00000,
,,,-00.000000171000,-126.00000,
,,,-00.000000170800,-126.00000,
,,,-00.000000170600,-126.00000,
,,,-00.000000170400,-126.00000,
,,,-00.000000170200,-126.00000,
,,,-00.000000170000,-126.00000,
,,,-00.000000169800,-126.00000,
,,,-00.000000169600,-126.00000,
,,,-00.000000169400,-126.00000,
,,,-00.000000169200,-126.00000,
,,,-00.000000169000,-126.00000,
,,,-00.000000168800,-126.00000,
,,,-00.000000168600,-126.00000,
,,,-00.000000168400,-126.00000,
,,,-00.000000168200,-126.00000,
,,,-00.000000168000,-126.00000,
,,,-00.000000167800,-126.00000,
,,,-00.000000167600,-126.00000,
,,,-00.000000167400,-126.00000,
,,,-00.000000167200,-126.00000,
,,,-00.000000167000,-126.00000,
,,,-00.000000166800,-126.00000,
,,,-00.000000166600,-126.00000,
,,,-00.000000166400,-126.00000,
,,,-00.000000166200,-126.00000,
,,,-00.000000166000,-126.00000,
,,,-00.000000165800,-126.00000,
,,,-00.000000165600,-126.00000,
,,,-00.000000165400,-126.00000,
,,,-00.000000165200,-126.00000,
,,,-00.000000165000,-126.00000,
,,,-00.000000164800,-126.00000,
,,,-00.000000164600,-126.00000,
,,,-00.000000164400,-124.00000,
,,,-00.000000164200,-124.00000,
,,,-00.000000164000,-124.00000,
,,,-00.000000163800,-124.00000,
,,,-00.000000163600,-124.00000,
,,,-00.000000163400,-124.00000,
,,,-00.000000163200,-124.00000,
,,,-00.000000163000,-124.00000,
,,,-00.000000162800,-124.00000,
,,,-00.000000162600,-124.00000,
,,,-00.000000162400,-124.00000,
,,,-00.000000162200,-124.00000,
,,,-00.000000162000,-124.00000,
,,,-00.000000161800,-124.00000,
,,,-00.000000161600,-124.00000,
,,,-00.000000161400,-124.00000,
,,,-00.000000161200,-124.00000,
,,,-00.000000161000,-124.00000,
,,,-00.000000160800,-124.00000,
,,,-00.000000160600,-124.00000,
,,,-00.000000160400,-124.00000,
,,,-00.000000160200,-126.00000,
,,,-00.000000160000,-126.00000,
,,,-00.000000159800,-126.00000,
,,,-00.000000159600,-126.00000,
,,,-00.000000159400,-126.00000,
,,,-00.000000159200,-126.00000,
,,,-00.000000159000,-126.00000,
,,,-00.000000158800,-126.00000,
,,,-00.000000158600,-126.00000,
,,,-00.000000158400,-126.00000,
,,,-00.000000158200,-124.00000,
,,,-00.000000158000,-126.00000,
,,,-00.000000157800,-126.00000,
,,,-00.000000157600,-124.00000,
,,,-00.000000157400,-124.00000,
,,,-00.000000157200,-126.00000,
,,,-00.000000157000,-126.00000,
,,,-00.000000156800,-126.00000,
,,,-00.000000156600,-126.00000,
,,,-00.000000156400,-126.00000,
,,,-00.000000156200,-126.00000,
,,,-00.000000156000,-126.00000,
,,,-00.000000155800,-126.00000,
,,,-00.000000155600,-126.00000,
,,,-00.000000155400,-126.00000,
,,,-00.000000155200,-126.00000,
,,,-00.000000155000,-126.00000,
,,,-00.000000154800,-126.00000,
,,,-00.000000154600,-126.00000,
,,,-00.000000154400,-126.00000,
,,,-00.000000154200,-126.00000,
,,,-00.000000154000,-126.00000,
,,,-00.000000153800,-126.00000,
,,,-00.000000153600,-124.00000,
,,,-00.000000153400,-124.00000,
,,,-00.000000153200,-124.00000,
,,,-00.000000153000,-124.00000,
,,,-00.000000152800,-124.00000,
,,,-00.000000152600,-124.00000,
,,,-00.000000152400,-124.00000,
,,,-00.000000152200,-124.00000,
,,,-00.000000152000,-124.00000,
,,,-00.000000151800,-124.00000,
,,,-00.000000151600,-124.00000,
,,,-00.000000151400,-124.00000,
,,,-00.000000151200,-124.00000,
,,,-00.000000151000,-124.00000,
,,,-00.000000150800,-124.00000,
,,,-00.000000150600,-124.00000,
,,,-00.000000150400,-124.00000,
,,,-00.000000150200,-124.00000,
,,,-00.000000150000,-124.00000,
,,,-00.000000149800,-124.00000,
,,,-00.000000149600,-124.00000,
,,,-00.000000149400,-124.00000,
,,,-00.000000149200,-124.00000,
,,,-00.000000149000,-124.00000,
,,,-00.000000148800,-124.00000,
,,,-00.000000148600,-124.00000,
,,,-00.000000148400,-124.00000,
,,,-00.000000148200,-124.00000,
,,,-00.000000148000,-124.00000,
,,,-00.000000147800,-124.00000,
,,,-00.000000147600,-124.00000,
,,,-00.000000147400,-124.00000,
,,,-00.000000147200,-124.00000,
,,,-00.000000147000,-124.00000,
,,,-00.000000146800,-124.00000,
,,,-00.000000146600,-124.00000,
,,,-00.000000146400,-124.00000,
,,,-00.000000146200,-124.00000,
,,,-00.000000146000,-124.00000,
,,,-00.000000145800,-124.00000,
,,,-00.000000145600,-124.00000,
,,,-00.000000145400,-124.00000,
,,,-00.000000145200,-124.00000,
,,,-00.000000145000,-124.00000,
,,,-00.000000144800,-124.00000,
,,,-00.000000144600,-124.00000,
,,,-00.000000144400,-124.00000,
,,,-00.000000144200,-124.00000,
,,,-00.000000144000,-124.00000,
,,,-00.000000143800,-124.00000,
,,,-00.000000143600,-124.00000,
,,,-00.000000143400,-124.00000,
,,,-00.000000143200,-124.00000,
,,,-00.000000143000,-124.00000,
,,,-00.000000142800,-124.00000,
,,,-00.000000142600,-124.00000,
,,,-00.000000142400,-124.00000,
,,,-00.000000142200,-124.00000,
,,,-00.000000142000,-124.00000,
,,,-00.000000141800,-124.00000,
,,,-00.000000141600,-124.00000,
,,,-00.000000141400,-122.00000,
,,,-00.000000141200,-122.00000,
,,,-00.000000141000,-122.00000,
,,,-00.000000140800,-122.00000,
,,,-00.000000140600,-122.00000,
,,,-00.000000140400,-122.00000,
,,,-00.000000140200,-122.00000,
,,,-00.000000140000,-122.00000,
,,,-00.000000139800,-122.00000,
,,,-00.000000139600,-122.00000,
,,,-00.000000139400,-122.00000,
,,,-00.000000139200,-122.00000,
,,,-00.000000139000,-122.00000,
,,,-00.000000138800,-122.00000,
,,,-00.000000138600,-122.00000,
,,,-00.000000138400,-122.00000,
,,,-00.000000138200,-120.00000,
,,,-00.000000138000,-120.00000,
,,,-00.000000137800,-120.00000,
,,,-00.000000137600,-120.00000,
,,,-00.000000137400,-120.00000,
,,,-00.000000137200,-120.00000,
,,,-00.000000137000,-120.00000,
,,,-00.000000136800,-120.00000,
,,,-00.000000136600,-120.00000,
,,,-00.000000136400,-120.00000,
,,,-00.000000136200,-120.00000,
,,,-00.000000136000,-120.00000,
,,,-00.000000135800,-120.00000,
,,,-00.000000135600,-120.00000,
,,,-00.000000135400,-120.00000,
,,,-00.000000135200,-118.00000,
,,,-00.000000135000,-118.00000,
,,,-00.000000134800,-118.00000,
,,,-00.000000134600,-118.00000,
,,,-00.000000134400,-118.00000,
,,,-00.000000134200,-118.00000,
,,,-00.000000134000,-118.00000,
,,,-00.000000133800,-118.00000,
,,,-00.000000133600,-118.00000,
,,,-00.000000133400,-118.00000,
,,,-00.000000133200,-118.00000,
,,,-00.000000133000,-116.00000,
,,,-00.000000132800,-116.00000,
,,,-00.000000132600,-116.00000,
,,,-00.000000132400,-116.00000,
,,,-00.000000132200,-116.00000,
,,,-00.000000132000,-116.00000,
,,,-00.000000131800,-116.00000,
,,,-00.000000131600,-116.00000,
,,,-00.000000131400,-116.00000,
,,,-00.000000131200,-116.00000,
,,,-00.000000131000,-114.00000,
,,,-00.000000130800,-114.00000,
,,,-00.000000130600,-114.00000,
,,,-00.000000130400,-114.00000,
,,,-00.000000130200,-114.00000,
,,,-00.000000130000,-114.00000,
,,,-00.000000129800,-114.00000,
,,,-00.000000129600,-114.00000,
,,,-00.000000129400,-112.00000,
,,,-00.000000129200,-112.00000,
,,,-00.000000129000,-112.00000,
,,,-00.000000128800,-112.00000,
,,,-00.000000128600,-112.00000,
,,,-00.000000128400,-112.00000,
,,,-00.000000128200,-112.00000,
,,,-00.000000128000,-112.00000,
,,,-00.000000127800,-112.00000,
,,,-00.000000127600,-112.00000,
,,,-00.000000127400,-112.00000,
,,,-00.000000127200,-110.00000,
,,,-00.000000127000,-110.00000,
,,,-00.000000126800,-110.00000,
,,,-00.000000126600,-110.00000,
,,,-00.000000126400,-110.00000,
,,,-00.000000126200,-110.00000,
,,,-00.000000126000,-110.00000,
,,,-00.000000125800,-110.00000,
,,,-00.000000125600,-108.00000,
,,,-00.000000125400,-108.00000,
,,,-00.000000125200,-108.00000,
,,,-00.000000125000,-108.00000,
,,,-00.000000124800,-108.00000,
,,,-00.000000124600,-108.00000,
,,,-00.000000124400,-108.00000,
,,,-00.000000124200,-108.00000,
,,,-00.000000124000,-108.00000,
,,,-00.000000123800,-108.00000,
,,,-00.000000123600,-106.00000,
,,,-00.000000123400,-106.00000,
,,,-00.000000123200,-106.00000,
,,,-00.000000123000,-106.00000,
,,,-00.000000122800,-106.00000,
,,,-00.000000122600,-106.00000,
,,,-00.000000122400,-106.00000,
,,,-00.000000122200,-104.00000,
,,,-00.000000122000,-104.00000,
,,,-00.000000121800,-104.00000,
,,,-00.000000121600,-104.00000,
,,,-00.000000121400,-104.00000,
,,,-00.000000121200,-104.00000,
,,,-00.000000121000,-104.00000,
,,,-00.000000120800,-104.00000,
,,,-00.000000120600,-102.00000,
,,,-00.000000120400,-102.00000,
,,,-00.000000120200,-102.00000,
,,,-00.000000120000,-102.00000,
,,,-00.000000119800,-102.00000,
,,,-00.000000119600,-102.00000,
,,,-00.000000119400,-102.00000,
,,,-00.000000119200,-102.00000,
,,,-00.000000119000,-100.00000,
,,,-00.000000118800,-100.00000,
,,,-00.000000118600,-100.00000,
,,,-00.000000118400,-100.00000,
,,,-00.000000118200,-100.00000,
,,,-00.000000118000,-100.00000,
,,,-00.000000117800,-100.00000,
,,,-00.000000117600, -98.00000,
,,,-00.000000117400, -98.00000,
,,,-00.000000117200, -98.00000,
,,,-00.000000117000, -98.00000,
,,,-00.000000116800, -98.00000,
,,,-00.000000116600, -98.00000,
,,,-00.000000116400, -98.00000,
,,,-00.000000116200, -98.00000,
,,,-00.000000116000, -98.00000,
,,,-00.000000115800, -96.00000,
,,,-00.000000115600, -96.00000,
,,,-00.000000115400, -96.00000,
,,,-00.000000115200, -96.00000,
,,,-00.000000115000, -96.00000,
,,,-00.000000114800, -96.00000,
,,,-00.000000114600, -96.00000,
,,,-00.000000114400, -94.00000,
,,,-00.000000114200, -94.00000,
,,,-00.000000114000, -94.00000,
,,,-00.000000113800, -94.00000,
,,,-00.000000113600, -94.00000,
,,,-00.000000113400, -94.00000,
,,,-00.000000113200, -94.00000,
,,,-00.000000113000, -92.00000,
,,,-00.000000112800, -92.00000,
,,,-00.000000112600, -92.00000,
,,,-00.000000112400, -92.00000,
,,,-00.000000112200, -92.00000,
,,,-00.000000112000, -92.00000,
,,,-00.000000111800, -92.00000,
,,,-00.000000111600, -90.00000,
,,,-00.000000111400, -90.00000,
,,,-00.000000111200, -90.00000,
,,,-00.000000111000, -90.00000,
,,,-00.000000110800, -90.00000,
,,,-00.000000110600, -90.00000,
,,,-00.000000110400, -90.00000,
,,,-00.000000110200, -88.00000,
,,,-00.000000110000, -88.00000,
,,,-00.000000109800, -88.00000,
,,,-00.000000109600, -88.00000,
,,,-00.000000109400, -88.00000,
,,,-00.000000109200, -88.00000,
,,,-00.000000109000, -88.00000,
,,,-00.000000108800, -88.00000,
,,,-00.000000108600, -86.00000,
,,,-00.000000108400, -86.00000,
,,,-00.000000108200, -86.00000,
,,,-00.000000108000, -86.00000,
,,,-00.000000107800, -86.00000,
,,,-00.000000107600, -86.00000,
,,,-00.000000107400, -86.00000,
,,,-00.000000107200, -84.00000,
,,,-00.000000107000, -84.00000,
,,,-00.000000106800, -84.00000,
,,,-00.000000106600, -84.00000,
,,,-00.000000106400, -84.00000,
,,,-00.000000106200, -84.00000,
,,,-00.000000106000, -84.00000,
,,,-00.000000105800, -82.00000,
,,,-00.000000105600, -82.00000,
,,,-00.000000105400, -82.00000,
,,,-00.000000105200, -82.00000,
,,,-00.000000105000, -82.00000,
,,,-00.000000104800, -82.00000,
,,,-00.000000104600, -82.00000,
,,,-00.000000104400, -80.00000,
,,,-00.000000104200, -80.00000,
,,,-00.000000104000, -80.00000,
,,,-00.000000103800, -80.00000,
,,,-00.000000103600, -80.00000,
,,,-00.000000103400, -80.00000,
,,,-00.000000103200, -80.00000,
,,,-00.000000103000, -80.00000,
,,,-00.000000102800, -78.00000,
,,,-00.000000102600, -78.00000,
,,,-00.000000102400, -78.00000,
,,,-00.000000102200, -78.00000,
,,,-00.000000102000, -78.00000,
,,,-00.000000101800, -78.00000,
,,,-00.000000101600, -78.00000,
,,,-00.000000101400, -76.00000,
,,,-00.000000101200, -76.00000,
,,,-00.000000101000, -76.00000,
,,,-00.000000100800, -76.00000,
,,,-00.000000100600, -76.00000,
,,,-00.000000100400, -76.00000,
,,,-00.000000100200, -76.00000,
,,,-00.000000100000, -74.00000,
,,,-00.000000099800, -74.00000,
,,,-00.000000099600, -74.00000,
,,,-00.000000099400, -74.00000,
,,,-00.000000099200, -74.00000,
,,,-00.000000099000, -74.00000,
,,,-00.000000098800, -74.00000,
,,,-00.000000098600, -72.00000,
,,,-00.000000098400, -72.00000,
,,,-00.000000098200, -72.00000,
,,,-00.000000098000, -72.00000,
,,,-00.000000097800, -72.00000,
,,,-00.000000097600, -72.00000,
,,,-00.000000097400, -70.00000,
,,,-00.000000097200, -70.00000,
,,,-00.000000097000, -70.00000,
,,,-00.000000096800, -70.00000,
,,,-00.000000096600, -70.00000,
,,,-00.000000096400, -70.00000,
,,,-00.000000096200, -70.00000,
,,,-00.000000096000, -68.00000,
,,,-00.000000095800, -68.00000,
,,,-00.000000095600, -68.00000,
,,,-00.000000095400, -68.00000,
,,,-00.000000095200, -68.00000,
,,,-00.000000095000, -68.00000,
,,,-00.000000094800, -68.00000,
,,,-00.000000094600, -66.00000,
,,,-00.000000094400, -66.00000,
,,,-00.000000094200, -66.00000,
,,,-00.000000094000, -66.00000,
,,,-00.000000093800, -66.00000,
,,,-00.000000093600, -66.00000,
,,,-00.000000093400, -66.00000,
,,,-00.000000093200, -66.00000,
,,,-00.000000093000, -64.00000,
,,,-00.000000092800, -64.00000,
,,,-00.000000092600, -64.00000,
,,,-00.000000092400, -64.00000,
,,,-00.000000092200, -64.00000,
,,,-00.000000092000, -64.00000,
,,,-00.000000091800, -64.00000,
,,,-00.000000091600, -62.00000,
,,,-00.000000091400, -62.00000,
,,,-00.000000091200, -62.00000,
,,,-00.000000091000, -62.00000,
,,,-00.000000090800, -62.00000,
,,,-00.000000090600, -62.00000,
,,,-00.000000090400, -62.00000,
,,,-00.000000090200, -60.00000,
,,,-00.000000090000, -60.00000,
,,,-00.000000089800, -60.00000,
,,,-00.000000089600, -60.00000,
,,,-00.000000089400, -60.00000,
,,,-00.000000089200, -60.00000,
,,,-00.000000089000, -60.00000,
,,,-00.000000088800, -60.00000,
,,,-00.000000088600, -58.00000,
,,,-00.000000088400, -58.00000,
,,,-00.000000088200, -58.00000,
,,,-00.000000088000, -58.00000,
,,,-00.000000087800, -58.00000,
,,,-00.000000087600, -58.00000,
,,,-00.000000087400, -56.00000,
,,,-00.000000087200, -56.00000,
,,,-00.000000087000, -56.00000,
,,,-00.000000086800, -56.00000,
,,,-00.000000086600, -56.00000,
,,,-00.000000086400, -56.00000,
,,,-00.000000086200, -54.00000,
,,,-00.000000086000, -54.00000,
,,,-00.000000085800, -54.00000,
,,,-00.000000085600, -54.00000,
,,,-00.000000085400, -54.00000,
